{
  "data": {
    "continents": [
      {
        "name": "Africa",
        "countries": [
          {
            "name": "Angola",
            "languages": [
              {
                "name": "Portuguese"
              }
            ]
          },
          {
            "name": "Burkina Faso",
            "languages": [
              {
                "name": "French"
              },
              {
                "name": "Peul"
              }
            ]
          },
          {
            "name": "Burundi",
            "languages": [
              {
                "name": "French"
              },
              {
                "name": "Kirundi"
              }
            ]
          },
          {
            "name": "Benin",
            "languages": [
              {
                "name": "French"
              }
            ]
          },
          {
            "name": "Botswana",
            "languages": [
              {
                "name": "English"
              },
              {
                "name": "Tswana"
              }
            ]
          },
          {
            "name": "Democratic Republic of the Congo",
            "languages": [
              {
                "name": "French"
              },
              {
                "name": "Lingala"
              },
              {
                "name": "Kongo"
              },
              {
                "name": "Swahili"
              },
              {
                "name": "Luba-Katanga"
              }
            ]
          },
          {
            "name": "Central African Republic",
            "languages": [
              {
                "name": "French"
              },
              {
                "name": "Sango"
              }
            ]
          },
          {
            "name": "Republic of the Congo",
            "languages": [
              {
                "name": "French"
              },
              {
                "name": "Lingala"
              }
            ]
          },
          {
            "name": "Ivory Coast",
            "languages": [
              {
                "name": "French"
              }
            ]
          },
          {
            "name": "Cameroon",
            "languages": [
              {
                "name": "English"
              },
              {
                "name": "French"
              }
            ]
          },
          {
            "name": "Cape Verde",
            "languages": [
              {
                "name": "Portuguese"
              }
            ]
          },
          {
            "name": "Djibouti",
            "languages": [
              {
                "name": "French"
              },
              {
                "name": "Arabic"
              }
            ]
          },
          {
            "name": "Algeria",
            "languages": [
              {
                "name": "Arabic"
              }
            ]
          },
          {
            "name": "Egypt",
            "languages": [
              {
                "name": "Arabic"
              }
            ]
          },
          {
            "name": "Western Sahara",
            "languages": [
              {
                "name": "Spanish"
              }
            ]
          },
          {
            "name": "Eritrea",
            "languages": [
              {
                "name": "Tigrinya"
              },
              {
                "name": "Arabic"
              },
              {
                "name": "English"
              }
            ]
          },
          {
            "name": "Ethiopia",
            "languages": [
              {
                "name": "Amharic"
              }
            ]
          },
          {
            "name": "Gabon",
            "languages": [
              {
                "name": "French"
              }
            ]
          },
          {
            "name": "Ghana",
            "languages": [
              {
                "name": "English"
              }
            ]
          },
          {
            "name": "Gambia",
            "languages": [
              {
                "name": "English"
              }
            ]
          },
          {
            "name": "Guinea",
            "languages": [
              {
                "name": "French"
              },
              {
                "name": "Peul"
              }
            ]
          },
          {
            "name": "Equatorial Guinea",
            "languages": [
              {
                "name": "Spanish"
              },
              {
                "name": "French"
              }
            ]
          },
          {
            "name": "Guinea-Bissau",
            "languages": [
              {
                "name": "Portuguese"
              }
            ]
          },
          {
            "name": "Kenya",
            "languages": [
              {
                "name": "English"
              },
              {
                "name": "Swahili"
              }
            ]
          },
          {
            "name": "Comoros",
            "languages": [
              {
                "name": "Arabic"
              },
              {
                "name": "French"
              }
            ]
          },
          {
            "name": "Liberia",
            "languages": [
              {
                "name": "English"
              }
            ]
          },
          {
            "name": "Lesotho",
            "languages": [
              {
                "name": "English"
              },
              {
                "name": "Southern Sotho"
              }
            ]
          },
          {
            "name": "Libya",
            "languages": [
              {
                "name": "Arabic"
              }
            ]
          },
          {
            "name": "Morocco",
            "languages": [
              {
                "name": "Arabic"
              }
            ]
          },
          {
            "name": "Madagascar",
            "languages": [
              {
                "name": "French"
              },
              {
                "name": "Malagasy"
              }
            ]
          },
          {
            "name": "Mali",
            "languages": [
              {
                "name": "French"
              }
            ]
          },
          {
            "name": "Mauritania",
            "languages": [
              {
                "name": "Arabic"
              }
            ]
          },
          {
            "name": "Mauritius",
            "languages": [
              {
                "name": "English"
              }
            ]
          },
          {
            "name": "Malawi",
            "languages": [
              {
                "name": "English"
              },
              {
                "name": "Chichewa"
              }
            ]
          },
          {
            "name": "Mozambique",
            "languages": [
              {
                "name": "Portuguese"
              }
            ]
          },
          {
            "name": "Namibia",
            "languages": [
              {
                "name": "English"
              },
              {
                "name": "Afrikaans"
              }
            ]
          },
          {
            "name": "Niger",
            "languages": [
              {
                "name": "French"
              }
            ]
          },
          {
            "name": "Nigeria",
            "languages": [
              {
                "name": "English"
              }
            ]
          },
          {
            "name": "Réunion",
            "languages": [
              {
                "name": "French"
              }
            ]
          },
          {
            "name": "Rwanda",
            "languages": [
              {
                "name": "Rwandi"
              },
              {
                "name": "English"
              },
              {
                "name": "French"
              }
            ]
          },
          {
            "name": "Seychelles",
            "languages": [
              {
                "name": "French"
              },
              {
                "name": "English"
              }
            ]
          },
          {
            "name": "Sudan",
            "languages": [
              {
                "name": "Arabic"
              },
              {
                "name": "English"
              }
            ]
          },
          {
            "name": "Saint Helena",
            "languages": [
              {
                "name": "English"
              }
            ]
          },
          {
            "name": "Sierra Leone",
            "languages": [
              {
                "name": "English"
              }
            ]
          },
          {
            "name": "Senegal",
            "languages": [
              {
                "name": "French"
              }
            ]
          },
          {
            "name": "Somalia",
            "languages": [
              {
                "name": "Somalia"
              },
              {
                "name": "Arabic"
              }
            ]
          },
          {
            "name": "South Sudan",
            "languages": [
              {
                "name": "English"
              }
            ]
          },
          {
            "name": "São Tomé and Príncipe",
            "languages": [
              {
                "name": "Portuguese"
              }
            ]
          },
          {
            "name": "Swaziland",
            "languages": [
              {
                "name": "English"
              },
              {
                "name": "Swati"
              }
            ]
          },
          {
            "name": "Chad",
            "languages": [
              {
                "name": "French"
              },
              {
                "name": "Arabic"
              }
            ]
          },
          {
            "name": "Togo",
            "languages": [
              {
                "name": "French"
              }
            ]
          },
          {
            "name": "Tunisia",
            "languages": [
              {
                "name": "Arabic"
              }
            ]
          },
          {
            "name": "Tanzania",
            "languages": [
              {
                "name": "Swahili"
              },
              {
                "name": "English"
              }
            ]
          },
          {
            "name": "Uganda",
            "languages": [
              {
                "name": "English"
              },
              {
                "name": "Swahili"
              }
            ]
          },
          {
            "name": "Mayotte",
            "languages": [
              {
                "name": "French"
              }
            ]
          },
          {
            "name": "South Africa",
            "languages": [
              {
                "name": "Afrikaans"
              },
              {
                "name": "English"
              },
              {
                "name": "South Ndebele"
              },
              {
                "name": "Southern Sotho"
              },
              {
                "name": "Swati"
              },
              {
                "name": "Tswana"
              },
              {
                "name": "Tsonga"
              },
              {
                "name": "Venda"
              },
              {
                "name": "Xhosa"
              },
              {
                "name": "Zulu"
              }
            ]
          },
          {
            "name": "Zambia",
            "languages": [
              {
                "name": "English"
              }
            ]
          },
          {
            "name": "Zimbabwe",
            "languages": [
              {
                "name": "English"
              },
              {
                "name": "Shona"
              },
              {
                "name": "North Ndebele"
              }
            ]
          }
        ]
      },
      {
        "name": "Antarctica",
        "countries": [
          {
            "name": "Antarctica",
            "languages": []
          },
          {
            "name": "Bouvet Island",
            "languages": [
              {
                "name": "Norwegian"
              },
              {
                "name": "Norwegian Bokmål"
              },
              {
                "name": "Norwegian Nynorsk"
              }
            ]
          },
          {
            "name": "South Georgia and the South Sandwich Islands",
            "languages": [
              {
                "name": "English"
              }
            ]
          },
          {
            "name": "Heard Island and McDonald Islands",
            "languages": [
              {
                "name": "English"
              }
            ]
          },
          {
            "name": "French Southern Territories",
            "languages": [
              {
                "name": "French"
              }
            ]
          }
        ]
      },
      {
        "name": "Asia",
        "countries": [
          {
            "name": "United Arab Emirates",
            "languages": [
              {
                "name": "Arabic"
              }
            ]
          },
          {
            "name": "Afghanistan",
            "languages": [
              {
                "name": "Pashto"
              },
              {
                "name": "Uzbek"
              },
              {
                "name": "Turkmen"
              }
            ]
          },
          {
            "name": "Armenia",
            "languages": [
              {
                "name": "Armenian"
              },
              {
                "name": "Russian"
              }
            ]
          },
          {
            "name": "Azerbaijan",
            "languages": [
              {
                "name": "Azerbaijani"
              }
            ]
          },
          {
            "name": "Bangladesh",
            "languages": [
              {
                "name": "Bengali"
              }
            ]
          },
          {
            "name": "Bahrain",
            "languages": [
              {
                "name": "Arabic"
              }
            ]
          },
          {
            "name": "Brunei",
            "languages": [
              {
                "name": "Malay"
              }
            ]
          },
          {
            "name": "Bhutan",
            "languages": [
              {
                "name": "Dzongkha"
              }
            ]
          },
          {
            "name": "Cocos [Keeling] Islands",
            "languages": [
              {
                "name": "English"
              }
            ]
          },
          {
            "name": "China",
            "languages": [
              {
                "name": "Chinese"
              }
            ]
          },
          {
            "name": "Christmas Island",
            "languages": [
              {
                "name": "English"
              }
            ]
          },
          {
            "name": "Georgia",
            "languages": [
              {
                "name": "Georgian"
              }
            ]
          },
          {
            "name": "Hong Kong",
            "languages": [
              {
                "name": "Chinese"
              },
              {
                "name": "English"
              }
            ]
          },
          {
            "name": "Indonesia",
            "languages": [
              {
                "name": "Indonesian"
              }
            ]
          },
          {
            "name": "Israel",
            "languages": [
              {
                "name": "Hebrew"
              },
              {
                "name": "Arabic"
              }
            ]
          },
          {
            "name": "India",
            "languages": [
              {
                "name": "Hindi"
              },
              {
                "name": "English"
              }
            ]
          },
          {
            "name": "British Indian Ocean Territory",
            "languages": [
              {
                "name": "English"
              }
            ]
          },
          {
            "name": "Iraq",
            "languages": [
              {
                "name": "Arabic"
              },
              {
                "name": "Kurdish"
              }
            ]
          },
          {
            "name": "Iran",
            "languages": [
              {
                "name": "Persian"
              }
            ]
          },
          {
            "name": "Jordan",
            "languages": [
              {
                "name": "Arabic"
              }
            ]
          },
          {
            "name": "Japan",
            "languages": [
              {
                "name": "Japanese"
              }
            ]
          },
          {
            "name": "Kyrgyzstan",
            "languages": [
              {
                "name": "Kirghiz"
              },
              {
                "name": "Russian"
              }
            ]
          },
          {
            "name": "Cambodia",
            "languages": [
              {
                "name": "Cambodian"
              }
            ]
          },
          {
            "name": "North Korea",
            "languages": [
              {
                "name": "Korean"
              }
            ]
          },
          {
            "name": "South Korea",
            "languages": [
              {
                "name": "Korean"
              }
            ]
          },
          {
            "name": "Kuwait",
            "languages": [
              {
                "name": "Arabic"
              }
            ]
          },
          {
            "name": "Kazakhstan",
            "languages": [
              {
                "name": "Kazakh"
              },
              {
                "name": "Russian"
              }
            ]
          },
          {
            "name": "Laos",
            "languages": [
              {
                "name": "Laotian"
              }
            ]
          },
          {
            "name": "Lebanon",
            "languages": [
              {
                "name": "Arabic"
              },
              {
                "name": "French"
              }
            ]
          },
          {
            "name": "Sri Lanka",
            "languages": [
              {
                "name": "Sinhalese"
              },
              {
                "name": "Tamil"
              }
            ]
          },
          {
            "name": "Myanmar [Burma]",
            "languages": [
              {
                "name": "Burmese"
              }
            ]
          },
          {
            "name": "Mongolia",
            "languages": [
              {
                "name": "Mongolian"
              }
            ]
          },
          {
            "name": "Macao",
            "languages": [
              {
                "name": "Chinese"
              },
              {
                "name": "Portuguese"
              }
            ]
          },
          {
            "name": "Maldives",
            "languages": [
              {
                "name": "Divehi"
              }
            ]
          },
          {
            "name": "Malaysia",
            "languages": [
              {
                "name": "Malay"
              }
            ]
          },
          {
            "name": "Nepal",
            "languages": [
              {
                "name": "Nepali"
              }
            ]
          },
          {
            "name": "Oman",
            "languages": [
              {
                "name": "Arabic"
              }
            ]
          },
          {
            "name": "Philippines",
            "languages": [
              {
                "name": "English"
              }
            ]
          },
          {
            "name": "Pakistan",
            "languages": [
              {
                "name": "English"
              },
              {
                "name": "Urdu"
              }
            ]
          },
          {
            "name": "Palestine",
            "languages": [
              {
                "name": "Arabic"
              }
            ]
          },
          {
            "name": "Qatar",
            "languages": [
              {
                "name": "Arabic"
              }
            ]
          },
          {
            "name": "Saudi Arabia",
            "languages": [
              {
                "name": "Arabic"
              }
            ]
          },
          {
            "name": "Singapore",
            "languages": [
              {
                "name": "English"
              },
              {
                "name": "Malay"
              },
              {
                "name": "Tamil"
              },
              {
                "name": "Chinese"
              }
            ]
          },
          {
            "name": "Syria",
            "languages": [
              {
                "name": "Arabic"
              }
            ]
          },
          {
            "name": "Thailand",
            "languages": [
              {
                "name": "Thai"
              }
            ]
          },
          {
            "name": "Tajikistan",
            "languages": [
              {
                "name": "Tajik"
              },
              {
                "name": "Russian"
              }
            ]
          },
          {
            "name": "Turkmenistan",
            "languages": [
              {
                "name": "Turkmen"
              },
              {
                "name": "Russian"
              }
            ]
          },
          {
            "name": "Turkey",
            "languages": [
              {
                "name": "Turkish"
              }
            ]
          },
          {
            "name": "Taiwan",
            "languages": [
              {
                "name": "Chinese"
              }
            ]
          },
          {
            "name": "Uzbekistan",
            "languages": [
              {
                "name": "Uzbek"
              },
              {
                "name": "Russian"
              }
            ]
          },
          {
            "name": "Vietnam",
            "languages": [
              {
                "name": "Vietnamese"
              }
            ]
          },
          {
            "name": "Yemen",
            "languages": [
              {
                "name": "Arabic"
              }
            ]
          }
        ]
      },
      {
        "name": "Europe",
        "countries": [
          {
            "name": "Andorra",
            "languages": [
              {
                "name": "Catalan"
              }
            ]
          },
          {
            "name": "Albania",
            "languages": [
              {
                "name": "Albanian"
              }
            ]
          },
          {
            "name": "Austria",
            "languages": [
              {
                "name": "German"
              }
            ]
          },
          {
            "name": "Åland",
            "languages": [
              {
                "name": "Swedish"
              }
            ]
          },
          {
            "name": "Bosnia and Herzegovina",
            "languages": [
              {
                "name": "Bosnian"
              },
              {
                "name": "Croatian"
              },
              {
                "name": "Serbian"
              }
            ]
          },
          {
            "name": "Belgium",
            "languages": [
              {
                "name": "Dutch"
              },
              {
                "name": "French"
              },
              {
                "name": "German"
              }
            ]
          },
          {
            "name": "Bulgaria",
            "languages": [
              {
                "name": "Bulgarian"
              }
            ]
          },
          {
            "name": "Belarus",
            "languages": [
              {
                "name": "Belarusian"
              },
              {
                "name": "Russian"
              }
            ]
          },
          {
            "name": "Switzerland",
            "languages": [
              {
                "name": "German"
              },
              {
                "name": "French"
              },
              {
                "name": "Italian"
              }
            ]
          },
          {
            "name": "Cyprus",
            "languages": [
              {
                "name": "Greek"
              },
              {
                "name": "Turkish"
              },
              {
                "name": "Armenian"
              }
            ]
          },
          {
            "name": "Czech Republic",
            "languages": [
              {
                "name": "Czech"
              },
              {
                "name": "Slovak"
              }
            ]
          },
          {
            "name": "Germany",
            "languages": [
              {
                "name": "German"
              }
            ]
          },
          {
            "name": "Denmark",
            "languages": [
              {
                "name": "Danish"
              }
            ]
          },
          {
            "name": "Estonia",
            "languages": [
              {
                "name": "Estonian"
              }
            ]
          },
          {
            "name": "Spain",
            "languages": [
              {
                "name": "Spanish"
              },
              {
                "name": "Basque"
              },
              {
                "name": "Catalan"
              },
              {
                "name": "Galician"
              },
              {
                "name": "Occitan"
              }
            ]
          },
          {
            "name": "Finland",
            "languages": [
              {
                "name": "Finnish"
              },
              {
                "name": "Swedish"
              }
            ]
          },
          {
            "name": "Faroe Islands",
            "languages": [
              {
                "name": "Faroese"
              }
            ]
          },
          {
            "name": "France",
            "languages": [
              {
                "name": "French"
              }
            ]
          },
          {
            "name": "United Kingdom",
            "languages": [
              {
                "name": "English"
              }
            ]
          },
          {
            "name": "Guernsey",
            "languages": [
              {
                "name": "English"
              },
              {
                "name": "French"
              }
            ]
          },
          {
            "name": "Gibraltar",
            "languages": [
              {
                "name": "English"
              }
            ]
          },
          {
            "name": "Greece",
            "languages": [
              {
                "name": "Greek"
              }
            ]
          },
          {
            "name": "Croatia",
            "languages": [
              {
                "name": "Croatian"
              }
            ]
          },
          {
            "name": "Hungary",
            "languages": [
              {
                "name": "Hungarian"
              }
            ]
          },
          {
            "name": "Ireland",
            "languages": [
              {
                "name": "Irish"
              },
              {
                "name": "English"
              }
            ]
          },
          {
            "name": "Isle of Man",
            "languages": [
              {
                "name": "English"
              },
              {
                "name": "Manx"
              }
            ]
          },
          {
            "name": "Iceland",
            "languages": [
              {
                "name": "Icelandic"
              }
            ]
          },
          {
            "name": "Italy",
            "languages": [
              {
                "name": "Italian"
              }
            ]
          },
          {
            "name": "Jersey",
            "languages": [
              {
                "name": "English"
              },
              {
                "name": "French"
              }
            ]
          },
          {
            "name": "Liechtenstein",
            "languages": [
              {
                "name": "German"
              }
            ]
          },
          {
            "name": "Lithuania",
            "languages": [
              {
                "name": "Lithuanian"
              }
            ]
          },
          {
            "name": "Luxembourg",
            "languages": [
              {
                "name": "French"
              },
              {
                "name": "German"
              },
              {
                "name": "Luxembourgish"
              }
            ]
          },
          {
            "name": "Latvia",
            "languages": [
              {
                "name": "Latvian"
              }
            ]
          },
          {
            "name": "Monaco",
            "languages": [
              {
                "name": "French"
              }
            ]
          },
          {
            "name": "Moldova",
            "languages": [
              {
                "name": "Romanian"
              }
            ]
          },
          {
            "name": "Montenegro",
            "languages": [
              {
                "name": "Serbian"
              },
              {
                "name": "Bosnian"
              },
              {
                "name": "Albanian"
              },
              {
                "name": "Croatian"
              }
            ]
          },
          {
            "name": "North Macedonia",
            "languages": [
              {
                "name": "Macedonian"
              }
            ]
          },
          {
            "name": "Malta",
            "languages": [
              {
                "name": "Maltese"
              },
              {
                "name": "English"
              }
            ]
          },
          {
            "name": "Netherlands",
            "languages": [
              {
                "name": "Dutch"
              }
            ]
          },
          {
            "name": "Norway",
            "languages": [
              {
                "name": "Norwegian"
              },
              {
                "name": "Norwegian Bokmål"
              },
              {
                "name": "Norwegian Nynorsk"
              }
            ]
          },
          {
            "name": "Poland",
            "languages": [
              {
                "name": "Polish"
              }
            ]
          },
          {
            "name": "Portugal",
            "languages": [
              {
                "name": "Portuguese"
              }
            ]
          },
          {
            "name": "Romania",
            "languages": [
              {
                "name": "Romanian"
              }
            ]
          },
          {
            "name": "Serbia",
            "languages": [
              {
                "name": "Serbian"
              }
            ]
          },
          {
            "name": "Russia",
            "languages": [
              {
                "name": "Russian"
              }
            ]
          },
          {
            "name": "Sweden",
            "languages": [
              {
                "name": "Swedish"
              }
            ]
          },
          {
            "name": "Slovenia",
            "languages": [
              {
                "name": "Slovenian"
              }
            ]
          },
          {
            "name": "Svalbard and Jan Mayen",
            "languages": [
              {
                "name": "Norwegian"
              }
            ]
          },
          {
            "name": "Slovakia",
            "languages": [
              {
                "name": "Slovak"
              }
            ]
          },
          {
            "name": "San Marino",
            "languages": [
              {
                "name": "Italian"
              }
            ]
          },
          {
            "name": "Ukraine",
            "languages": [
              {
                "name": "Ukrainian"
              }
            ]
          },
          {
            "name": "Vatican City",
            "languages": [
              {
                "name": "Italian"
              },
              {
                "name": "Latin"
              }
            ]
          },
          {
            "name": "Kosovo",
            "languages": [
              {
                "name": "Albanian"
              },
              {
                "name": "Serbian"
              }
            ]
          }
        ]
      },
      {
        "name": "North America",
        "countries": [
          {
            "name": "Antigua and Barbuda",
            "languages": [
              {
                "name": "English"
              }
            ]
          },
          {
            "name": "Anguilla",
            "languages": [
              {
                "name": "English"
              }
            ]
          },
          {
            "name": "Aruba",
            "languages": [
              {
                "name": "Dutch"
              },
              {
                "name": "Panjabi / Punjabi"
              }
            ]
          },
          {
            "name": "Barbados",
            "languages": [
              {
                "name": "English"
              }
            ]
          },
          {
            "name": "Saint Barthélemy",
            "languages": [
              {
                "name": "French"
              }
            ]
          },
          {
            "name": "Bermuda",
            "languages": [
              {
                "name": "English"
              }
            ]
          },
          {
            "name": "Bonaire",
            "languages": [
              {
                "name": "Dutch"
              }
            ]
          },
          {
            "name": "Bahamas",
            "languages": [
              {
                "name": "English"
              }
            ]
          },
          {
            "name": "Belize",
            "languages": [
              {
                "name": "English"
              },
              {
                "name": "Spanish"
              }
            ]
          },
          {
            "name": "Canada",
            "languages": [
              {
                "name": "English"
              },
              {
                "name": "French"
              }
            ]
          },
          {
            "name": "Costa Rica",
            "languages": [
              {
                "name": "Spanish"
              }
            ]
          },
          {
            "name": "Cuba",
            "languages": [
              {
                "name": "Spanish"
              }
            ]
          },
          {
            "name": "Curacao",
            "languages": [
              {
                "name": "Dutch"
              },
              {
                "name": "Panjabi / Punjabi"
              },
              {
                "name": "English"
              }
            ]
          },
          {
            "name": "Dominica",
            "languages": [
              {
                "name": "English"
              }
            ]
          },
          {
            "name": "Dominican Republic",
            "languages": [
              {
                "name": "Spanish"
              }
            ]
          },
          {
            "name": "Grenada",
            "languages": [
              {
                "name": "English"
              }
            ]
          },
          {
            "name": "Greenland",
            "languages": [
              {
                "name": "Greenlandic"
              }
            ]
          },
          {
            "name": "Guadeloupe",
            "languages": [
              {
                "name": "French"
              }
            ]
          },
          {
            "name": "Guatemala",
            "languages": [
              {
                "name": "Spanish"
              }
            ]
          },
          {
            "name": "Honduras",
            "languages": [
              {
                "name": "Spanish"
              }
            ]
          },
          {
            "name": "Haiti",
            "languages": [
              {
                "name": "French"
              },
              {
                "name": "Haitian"
              }
            ]
          },
          {
            "name": "Jamaica",
            "languages": [
              {
                "name": "English"
              }
            ]
          },
          {
            "name": "Saint Kitts and Nevis",
            "languages": [
              {
                "name": "English"
              }
            ]
          },
          {
            "name": "Cayman Islands",
            "languages": [
              {
                "name": "English"
              }
            ]
          },
          {
            "name": "Saint Lucia",
            "languages": [
              {
                "name": "English"
              }
            ]
          },
          {
            "name": "Saint Martin",
            "languages": [
              {
                "name": "English"
              },
              {
                "name": "French"
              },
              {
                "name": "Dutch"
              }
            ]
          },
          {
            "name": "Martinique",
            "languages": [
              {
                "name": "French"
              }
            ]
          },
          {
            "name": "Montserrat",
            "languages": [
              {
                "name": "English"
              }
            ]
          },
          {
            "name": "Mexico",
            "languages": [
              {
                "name": "Spanish"
              }
            ]
          },
          {
            "name": "Nicaragua",
            "languages": [
              {
                "name": "Spanish"
              }
            ]
          },
          {
            "name": "Panama",
            "languages": [
              {
                "name": "Spanish"
              }
            ]
          },
          {
            "name": "Saint Pierre and Miquelon",
            "languages": [
              {
                "name": "French"
              }
            ]
          },
          {
            "name": "Puerto Rico",
            "languages": [
              {
                "name": "Spanish"
              },
              {
                "name": "English"
              }
            ]
          },
          {
            "name": "El Salvador",
            "languages": [
              {
                "name": "Spanish"
              }
            ]
          },
          {
            "name": "Sint Maarten",
            "languages": [
              {
                "name": "Dutch"
              },
              {
                "name": "English"
              }
            ]
          },
          {
            "name": "Turks and Caicos Islands",
            "languages": [
              {
                "name": "English"
              }
            ]
          },
          {
            "name": "Trinidad and Tobago",
            "languages": [
              {
                "name": "English"
              }
            ]
          },
          {
            "name": "United States",
            "languages": [
              {
                "name": "English"
              }
            ]
          },
          {
            "name": "Saint Vincent and the Grenadines",
            "languages": [
              {
                "name": "English"
              }
            ]
          },
          {
            "name": "British Virgin Islands",
            "languages": [
              {
                "name": "English"
              }
            ]
          },
          {
            "name": "U.S. Virgin Islands",
            "languages": [
              {
                "name": "English"
              }
            ]
          }
        ]
      },
      {
        "name": "Oceania",
        "countries": [
          {
            "name": "American Samoa",
            "languages": [
              {
                "name": "English"
              },
              {
                "name": "Samoan"
              }
            ]
          },
          {
            "name": "Australia",
            "languages": [
              {
                "name": "English"
              }
            ]
          },
          {
            "name": "Cook Islands",
            "languages": [
              {
                "name": "English"
              }
            ]
          },
          {
            "name": "Fiji",
            "languages": [
              {
                "name": "English"
              },
              {
                "name": "Fijian"
              },
              {
                "name": "Hindi"
              },
              {
                "name": "Urdu"
              }
            ]
          },
          {
            "name": "Micronesia",
            "languages": [
              {
                "name": "English"
              }
            ]
          },
          {
            "name": "Guam",
            "languages": [
              {
                "name": "English"
              },
              {
                "name": "Chamorro"
              },
              {
                "name": "Spanish"
              }
            ]
          },
          {
            "name": "Kiribati",
            "languages": [
              {
                "name": "English"
              }
            ]
          },
          {
            "name": "Marshall Islands",
            "languages": [
              {
                "name": "English"
              },
              {
                "name": "Marshallese"
              }
            ]
          },
          {
            "name": "Northern Mariana Islands",
            "languages": [
              {
                "name": "English"
              },
              {
                "name": "Chamorro"
              }
            ]
          },
          {
            "name": "New Caledonia",
            "languages": [
              {
                "name": "French"
              }
            ]
          },
          {
            "name": "Norfolk Island",
            "languages": [
              {
                "name": "English"
              }
            ]
          },
          {
            "name": "Nauru",
            "languages": [
              {
                "name": "English"
              },
              {
                "name": "Nauruan"
              }
            ]
          },
          {
            "name": "Niue",
            "languages": [
              {
                "name": "English"
              }
            ]
          },
          {
            "name": "New Zealand",
            "languages": [
              {
                "name": "English"
              },
              {
                "name": "Maori"
              }
            ]
          },
          {
            "name": "French Polynesia",
            "languages": [
              {
                "name": "French"
              }
            ]
          },
          {
            "name": "Papua New Guinea",
            "languages": [
              {
                "name": "English"
              }
            ]
          },
          {
            "name": "Pitcairn Islands",
            "languages": [
              {
                "name": "English"
              }
            ]
          },
          {
            "name": "Palau",
            "languages": [
              {
                "name": "English"
              }
            ]
          },
          {
            "name": "Solomon Islands",
            "languages": [
              {
                "name": "English"
              }
            ]
          },
          {
            "name": "Tokelau",
            "languages": [
              {
                "name": "English"
              }
            ]
          },
          {
            "name": "East Timor",
            "languages": [
              {
                "name": "Portuguese"
              }
            ]
          },
          {
            "name": "Tonga",
            "languages": [
              {
                "name": "English"
              },
              {
                "name": "Tonga"
              }
            ]
          },
          {
            "name": "Tuvalu",
            "languages": [
              {
                "name": "English"
              }
            ]
          },
          {
            "name": "U.S. Minor Outlying Islands",
            "languages": [
              {
                "name": "English"
              }
            ]
          },
          {
            "name": "Vanuatu",
            "languages": [
              {
                "name": "Bislama"
              },
              {
                "name": "English"
              },
              {
                "name": "French"
              }
            ]
          },
          {
            "name": "Wallis and Futuna",
            "languages": [
              {
                "name": "French"
              }
            ]
          },
          {
            "name": "Samoa",
            "languages": [
              {
                "name": "Samoan"
              },
              {
                "name": "English"
              }
            ]
          }
        ]
      },
      {
        "name": "South America",
        "countries": [
          {
            "name": "Argentina",
            "languages": [
              {
                "name": "Spanish"
              },
              {
                "name": "Guarani"
              }
            ]
          },
          {
            "name": "Bolivia",
            "languages": [
              {
                "name": "Spanish"
              },
              {
                "name": "Aymara"
              },
              {
                "name": "Quechua"
              }
            ]
          },
          {
            "name": "Brazil",
            "languages": [
              {
                "name": "Portuguese"
              }
            ]
          },
          {
            "name": "Chile",
            "languages": [
              {
                "name": "Spanish"
              }
            ]
          },
          {
            "name": "Colombia",
            "languages": [
              {
                "name": "Spanish"
              }
            ]
          },
          {
            "name": "Ecuador",
            "languages": [
              {
                "name": "Spanish"
              }
            ]
          },
          {
            "name": "Falkland Islands",
            "languages": [
              {
                "name": "English"
              }
            ]
          },
          {
            "name": "French Guiana",
            "languages": [
              {
                "name": "French"
              }
            ]
          },
          {
            "name": "Guyana",
            "languages": [
              {
                "name": "English"
              }
            ]
          },
          {
            "name": "Peru",
            "languages": [
              {
                "name": "Spanish"
              }
            ]
          },
          {
            "name": "Paraguay",
            "languages": [
              {
                "name": "Spanish"
              },
              {
                "name": "Guarani"
              }
            ]
          },
          {
            "name": "Suriname",
            "languages": [
              {
                "name": "Dutch"
              }
            ]
          },
          {
            "name": "Uruguay",
            "languages": [
              {
                "name": "Spanish"
              }
            ]
          },
          {
            "name": "Venezuela",
            "languages": [
              {
                "name": "Spanish"
              }
            ]
          }
        ]
      }
    ]
  }
}
